{
	"ImportPath": "github.com/fronbasal/4dl",
	"GoVersion": "go1.8",
	"GodepVersion": "v79",
	"Deps": [
		{
			"ImportPath": "github.com/alecthomas/template",
			"Rev": "a0175ee3bccc567396460bf5acd36800cb10c49c"
		},
		{
			"ImportPath": "github.com/alecthomas/template/parse",
			"Rev": "a0175ee3bccc567396460bf5acd36800cb10c49c"
		},
		{
			"ImportPath": "github.com/alecthomas/units",
			"Rev": "2efee857e7cfd4f3d0138cc3cbb1b4966962b93a"
		},
		{
			"ImportPath": "gopkg.in/alecthomas/kingpin.v2",
			"Comment": "v2.2.4",
			"Rev": "7f0871f2e17818990e4eed73f9b5c2f429501228"
		}
	]
}
